Cuenta hosting

www.salonhaciendalareja.com


WWWAcct 12.6.0 (c) 2015 cPanel, Inc....

Dns Zone check is enabled.
+===================================+
| New Account Info                  |
+===================================+
| Domain: salonhaciendalareja.com
| Ip: 192.185.158.60 (n)
| HasCgi: y
| UserName: wwwsalonhacienda
| PassWord: go?6?cw57D56
| CpanelMod: x3
| HomeRoot: /home
| Quota: 1000 Meg
| NameServer1: 192.185.158.58
| NameServer2: 192.185.158.57
| NameServer3: 
| NameServer4: 
| Contact Email: cesar_alonso_m_g@hotmail.com
| Package: cesarweb_PyME_1k
| Feature List: default
| Language: es
+===================================+
...Done


BASE DE DATOS:
Usuario: wwwsalon_root
Base de datos: wwwsalon_salonhaciendalareja
go?6?cw57D56

